%!PS-Adobe-3.0 EPSF-3.0
%%Creator: Adobe Illustrator by AutoTrace version 0.29
%%Title: 
%%CreationDate: Mon Mar 25 10:55:28 2002
%%BoundingBox: 0 0 200 200
%%DocumentData: Clean7Bit
%%EndComments
%%BeginProlog
/bd { bind def } bind def
/incompound false def
/m { moveto } bd
/l { lineto } bd
/c { curveto } bd
/F { incompound not {fill} if } bd
/f { closepath F } bd
/S { stroke } bd
/*u { /incompound true def } bd
/*U { /incompound false def f} bd
/k { setcmykcolor } bd
/K { k } bd
%%EndProlog
%%BeginSetup
%%EndSetup
0.003922 0.003922 0.000000 0.000000 k
*u
0 201 m
0 1 l
200 1 l
200 201 l
0 201 l
f
*U
0.458824 0.411765 0.000000 0.333333 k
*u
45 15 m
50.529 12.945  55.313 13.688  61 14.804  c 
72.360 17  82.770 21.978  93 27.258  c 
96.926 29.285  100.718 32  105 33.362  c 
112 35.375  121.780 32.857  129 32.170  c 
137.764 31.336  147.205 31.654  156 32  c 
160.561 32.239  170.946 32  174.218 35.738  c 
175.803 37.497  175.301 39.988  174 41.816  c 
171.374 46  166.773 48  164.519 53  c 
162.601 57.167  162.219 61.775  160.522 66  c 
157.798 72.781  152.216 78.769  146 82.521  c 
137.829 87.453  127 89.304  118 91.626  c 
111.897 93.172  105.699 94.399  101 99  c 
94.346 106  94.635 117.581  90.215 126  c 
88.694 128.898  86.924 132.231  83.907 133.816  c 
80.876 135.409  77.174 134.543  76.357 130.941  c 
75.293 126.249  78.229 121.677  75.821 117  c 
73.237 112  66.663 109.860  63 115.225  c 
58 122.969  62.285 136.720  64 145  c 
64.685 148.287  65 153  68.279 154.972  c 
74.772 159  86.296 153.804  90.258 163  c 
91 164.945  90.952 167  91 169  c 
82.412 169  73 167.740  66.326 174.329  c 
62.637 177.965  61.196 182.712  58.471 186.941  c 
57.271 188.804  55.517 190.829  53 189.824  c 
49.668 188.428  49 184.179  49 181  c 
48.883 173.850  54 166.865  51.189 160  c 
48.733 154  45.339 148.602  42.309 143  c 
29.705 119.698  15.641 88.393  33.761 64  c 
39.259 56.598  46.855 51.349  55 47.248  c 
58.696 45.386  66.231 43.187  67.744 38.895  c 
68.949 35.475  65 32  62.985 30  c 
57.263 24.668  48.511 22.352  45 15  c 
f
110 7 m
122.532 5.705  136.259 15.803  141 27  c 
126 27 l
119.433 27.307 l
116 20.999 l
110 7 l
f
*U
%%Trailer
%%EOF
